…
``` r
session <- bow("https://en.wikipedia.org/wiki/List_of_national_independence_days", force = TRUE)
ind_html <-
  polite::scrape(session) %>%
  rvest::html_nodes("table.wikitable") %>% 
  rvest::html_table(fill = TRUE)

ind_tab <- 
  ind_html[[1]] %>% 
  clean_names()
ind_tab
```

    ## # A tibble: 202 × 6
    ##    country       name_of_holiday date_of_holiday year_of_event independence_from
    ##    <chr>         <chr>           <chr>           <chr>         <chr>            
    ##  1 Afghanistan   Afghan Indepen… 19 August       1919          United Kingdom   
    ##  2 Albania       Flag Day (Dita… 28 November     1912          Ottoman Empire   
    ##  3 Algeria       Independence D… 5 July          1962          France           
    ##  4 Angola        Independence D… 11 November     1975          Portugal         
    ##  5 Antigua and … Independence D… 1 November      1981          United Kingdom   
    ##  6 Argentina     Independence D… 9 July          1816[8]       Spanish Empire   
    ##  7 Armenia       Republic Day    28 May          1918[9]       Russian Soviet F…
    ##  8 Armenia       Independence D… 21 September    1991          Soviet Union     
    ##  9 Azerbaijan    Independence D… 28 May          1918          Russian Soviet F…
    ## 10 Azerbaijan    Independendenc… 18 October      1991[10]      Soviet Union     
    ## # ℹ 192 more rows
    ## # ℹ 1 more variable: event_commemorated_and_notes <chr>
…
