Stat 585 - Web scraping etiquette …
…
[[2]]
# A tibble: 99 × 3
   `Vote by county` Trump  Clinton
   <chr>            <chr>  <chr>  
 1 Polk             93,492 119,804
 2 Linn             48,390 58,935 
 3 Scott            39,149 40,440 
 4 Johnson          21,044 50,200 
 5 Black Hawk       27,476 32,233 
 6 Story            19,458 25,709 
 7 Dubuque          23,460 22,850 
 8 Woodbury         24,727 16,210 
 9 Pottawattamie    24,447 15,355 
10 Dallas           19,339 15,701 
# … with 89 more rows

[[3]]
# A tibble: 6 × 6
  Candidate Candidate                                    Party Votes Pct.  ``   
  <lgl>     <chr>                                        <chr> <chr> <chr> <lgl>
1 NA        "Grassley*\n            \n            \n   … "Rep… 926,… 60.2% NA   
2 NA        "Judge\n            \n            \n       … "Dem… 549,… 35.7% NA   
3 NA        "Aldrich\n            \n            \n     … "Lib… 41,7… 2.7%  NA   
4 NA        "Hennager\n            \n            \n    … "Ind… 17,6… 1.1%  NA   
5 NA        "Luick-Thrams\n            \n            \n… "Pet… 4,441 0.3%  NA   
6 NA        "Others\n            \n            \n      … ""    22,0… 1.4%  NA   

[[4]]
# A tibble: 99 × 3
   `Vote by county` Grassley Judge  
   <chr>            <chr>    <chr>  
 1 Polk             118,164  100,317
 2 Linn             62,737   47,635 
 3 Scott            46,415   34,503 
 4 Johnson          28,914   42,699 
 5 Black Hawk       33,884   27,245 
 6 Story            25,475   21,472 
 7 Dubuque          27,348   19,291 
 8 Woodbury         27,166   13,909 
 9 Pottawattamie    25,721   12,943 
10 Dallas           24,374   11,876 
# … with 89 more rows

[[5]]
# A tibble: 4 × 5
  `District\n          Dist.` Leader                     ``          Rpt.  ``   
                        <int> <chr>                      <chr>       <chr> <lgl>
1                           1 "54%Blum*\n      Rep."     "46%Vernon… 100%  NA   
2                           2 "54%Loebsack*\n      Dem." "46%Peters… 100%  NA   
3                           3 "54%Young*\n      Rep."    "40%Mowrer… 100%  NA   
4                           4 "61%King*\n      Rep."     "39%Weaver… 100%  NA   

[[6]]
# A tibble: 25 × 5
   `Seat\n          Seat` Leader                     ``              Rpt.  ``   
                    <int> <chr>                      <chr>           <chr> <lgl>
 1                      2 "0%Feenstra*\n      Rep."  "Uncontested"   ""    NA   
 2                      4 "61%Guth*\n      Rep."     "39%Bangert\n … "100… NA   
 3                      6 "83%Segebart*\n      Rep." "17%Serianni\n… "100… NA   
 4                      8 "54%Dawson\n      Rep."    "46%Gronstal*\… "100… NA   
 5                     10 "67%Chapman*\n      Rep."  "33%Paladino\n… "100… NA   
 6                     12 "78%Costello*\n      Rep." "22%Brantz\n  … "100… NA   
 7                     14 "74%Sinclair*\n      Rep." "26%Smith\n   … "100… NA   
 8                     16 "60%Boulton\n      Dem."   "35%Pryor\n   … "100… NA   
 9                     18 "0%Petersen*\n      Dem."  "Uncontested"   ""    NA   
10                     20 "60%Zaun*\n      Rep."     "41%Hikiji\n  … "100… NA   
# … with 15 more rows

[[7]]
# A tibble: 100 × 5
   `District\n          Dist.` Leader                    ``          Rpt.  ``   
                         <int> <chr>                     <chr>       <chr> <lgl>
 1                           1 "0%Wills*\n      Rep."    "Uncontest… ""    NA   
 2                           2 "0%Jones*\n      Rep."    "Uncontest… ""    NA   
 3                           3 "81%Huseman*\n      Rep." "19%McCoy\… "100… NA   
 4                           4 "63%Wheeler\n      Rep."  "37%VanDer… "100… NA   
 5                           5 "77%Holz*\n      Rep."    "23%Ritz\n… "100… NA   
 6                           6 "66%Carlin\n      Rep."   "35%Alarco… "100… NA   
 7                           7 "63%Gassman*\n      Rep." "37%Grussi… "100… NA   
 8                           8 "68%Baxter*\n      Rep."  "32%Paule … "100… NA   
 9                           9 "57%Miller*\n      Dem."  "43%Waecht… "100… NA   
10                          10 "0%Sexton*\n      Rep."   "Uncontest… ""    NA   
# … with 90 more rows
…
