…
    ## The following object is masked from 'package:rvest':
    ## 
    ##     guess_encoding

``` r
session <- bow("https://www.nytimes.com/elections/2016/results/iowa", force = TRUE)
result <- scrape(session, query=list(t="semi-soft", per_page=100))

tables <- result %>% html_table(fill=TRUE)
tables[[2]]
```

    ## # A tibble: 99 × 3
    ##    `Vote by county` Trump  Clinton
    ##    <chr>            <chr>  <chr>  
    ##  1 Polk             93,492 119,804
    ##  2 Linn             48,390 58,935 
    ##  3 Scott            39,149 40,440 
    ##  4 Johnson          21,044 50,200 
    ##  5 Black Hawk       27,476 32,233 
    ##  6 Story            19,458 25,709 
    ##  7 Dubuque          23,460 22,850 
    ##  8 Woodbury         24,727 16,210 
    ##  9 Pottawattamie    24,447 15,355 
    ## 10 Dallas           19,339 15,701 
    ## # … with 89 more rows
…
