…
# Group by the players by ID

``` r
players_df <- group_by(baseball_1, id)
players_df
#> # A tibble: 21,687 × 4
#> # Groups:   id [1,228]
#>    id         year    ab   rbi
#>    <chr>     <int> <int> <int>
#>  1 ansonca01  1871   120    16
#>  2 forceda01  1871   162    29
#>  3 mathebo01  1871    89    10
#>  4 startjo01  1871   161    34
#>  5 suttoez01  1871   128    23
#>  6 whitede01  1871   146    21
#>  7 yorkto01   1871   145    23
#>  8 ansonca01  1872   217    50
#>  9 burdoja01  1872   174    15
#> 10 forceda01  1872   130    16
#> # … with 21,677 more rows
```

# Create the career year using mutate function

``` r
players_df_cyear = mutate(players_df, cyear = year - min(year) + 1)
players_df_cyear
#> # A tibble: 21,687 × 5
#> # Groups:   id [1,228]
#>    id         year    ab   rbi cyear
#>    <chr>     <int> <int> <int> <dbl>
#>  1 ansonca01  1871   120    16     1
#>  2 forceda01  1871   162    29     1
#>  3 mathebo01  1871    89    10     1
#>  4 startjo01  1871   161    34     1
#>  5 suttoez01  1871   128    23     1
#>  6 whitede01  1871   146    21     1
#>  7 yorkto01   1871   145    23     1
#>  8 ansonca01  1872   217    50     2
#>  9 burdoja01  1872   174    15     1
#> 10 forceda01  1872   130    16     2
#> # … with 21,677 more rows
```

# Get the rows that ab is greater than 25

``` r
players_df_cyear_sub = filter(players_df_cyear, ab > 25)
```

# Add a column which is rbi/ab

``` r
players_df_cyear_sub = mutate(players_df_cyear, ratio_rbi_ab = rbi/ab)
players_df_cyear_sub
#> # A tibble: 21,687 × 6
#> # Groups:   id [1,228]
#>    id         year    ab   rbi cyear ratio_rbi_ab
#>    <chr>     <int> <int> <int> <dbl>        <dbl>
#>  1 ansonca01  1871   120    16     1       0.133 
#>  2 forceda01  1871   162    29     1       0.179 
#>  3 mathebo01  1871    89    10     1       0.112 
#>  4 startjo01  1871   161    34     1       0.211 
#>  5 suttoez01  1871   128    23     1       0.180 
#>  6 whitede01  1871   146    21     1       0.144 
#>  7 yorkto01   1871   145    23     1       0.159 
#>  8 ansonca01  1872   217    50     2       0.230 
#>  9 burdoja01  1872   174    15     1       0.0862
#> 10 forceda01  1872   130    16     2       0.123 
#> # … with 21,677 more rows
```
…
