Stat 585 - Working with ‘Plyr’ package
…
The example shows that we can subset the data based on id, and then apply the changes on that specific subset. IF we want to do this for all different ids, we need to repeat this two lines of code multiple times or we should apply a for loop on different ids.

baberuth <- subset(baseball, id == "ruthba01")
baberuth <- transform(baberuth, cyear = year - min(year) + 1)

This line of code using the function ddply from the “Plyr” package can do the same thing easier. The code is also shorter and less complex. The ddply function will get the whole data frame as the input, get the variable to split the data frame by it (id), apply mentioned changes on different independent pieces, and finally combine pieces together.

baseball <- ddply(baseball, .(id), transform, 
  cyear = year - min(year) + 1)

We can also do the same with other base functions in R. For example, these lines of code mentioned below can do the same on our dataframe.

baseball <- baseball %>% group_by(id) %>% mutate(cyear =year - min(year) + 1)
baseball
#> # A tibble: 21,699 × 23
#> # Groups:   id [1,228]
#>    id     year stint team  lg        g    ab     r     h   X2b   X3b    hr   rbi
#>    <chr> <int> <int> <chr> <chr> <int> <int> <int> <int> <int> <int> <int> <int>
#>  1 aaro…  1954     1 ML1   NL      122   468    58   131    27     6    13    69
#>  2 aaro…  1955     1 ML1   NL      153   602   105   189    37     9    27   106
#>  3 aaro…  1956     1 ML1   NL      153   609   106   200    34    14    26    92
#>  4 aaro…  1957     1 ML1   NL      151   615   118   198    27     6    44   132
#>  5 aaro…  1958     1 ML1   NL      153   601   109   196    34     4    30    95
#>  6 aaro…  1959     1 ML1   NL      154   629   116   223    46     7    39   123
#>  7 aaro…  1960     1 ML1   NL      153   590   102   172    20    11    40   126
#>  8 aaro…  1961     1 ML1   NL      155   603   115   197    39    10    34   120
#>  9 aaro…  1962     1 ML1   NL      156   592   127   191    28     6    45   128
#> 10 aaro…  1963     1 ML1   NL      161   631   121   201    29     4    44   130
#> # … with 21,689 more rows, and 10 more variables: sb <int>, cs <int>, bb <int>,
#> #   so <int>, ibb <int>, hbp <int>, sh <int>, sf <int>, gidp <int>, cyear <dbl>
…
