…
``` r
ind_html <-
  polite::scrape(url_bow) %>%  # scrape web page
  rvest::html_nodes("table.wikitable") %>% # pull out specific table
  rvest::html_table(fill = TRUE) 
ind_tab <- 
  ind_html[[1]] %>% 
  clean_names()
ind_tab
```

    ## # A tibble: 312 × 3
    ##    nation                         date        significance_of_this_date         
    ##    <chr>                          <chr>       <chr>                             
    ##  1 Acadia (Canada)                15 August   Assumption Day was preferred over…
    ##  2 Afghanistan                    19 August   Independence from United Kingdom …
    ##  3 Albania                        28 November Albanian Flag Day: Raising of the…
    ##  4 Alderney (British Islands)     15 December Homecoming Day, the return of the…
    ##  5 Algeria                        5 July      Independence Day (Algeria) in 1962
    ##  6 American Samoa (United States) 17 April    US Flag Day, commemorates the dat…
    ##  7 Andorra                        8 September Our Lady of Meritxell Day, patron…
    ##  8 Angola                         11 November Independence from Portugal in 1975
    ##  9 Anguilla (United Kingdom)      30 May      Anguilla Day; the beginning of th…
    ## 10 Antigua and Barbuda            1 November  Independence from the United King…
    ## # ℹ 302 more rows
…
